310 Paradise Restored

Revelation Revelation
2:20-24 108 12:10 182

2:26-28 192 12:11 42, 155, 165, 178, 198
31-4 108 12:12 220

34 16 13 109, 153, 171, 175-84
35 192 13:1 16, 176, 177, 183
a9 104, 179 13:2 176, 177
3:12 16, 192, 205 13:3 178
314-223 13:3-4 179
315-1612 13:5 179

3:15-18 108 13:5-6 177

3:16 55 13:7 179

3:18 16 13:8 179

3:20 16 13:11 181, 182
3:21 192 13:12 178, 179, 182
45 170 13113-13182

43 37 1314 178,179

4:4 180 1315-17182

4:6 57 13:16 153

5:5 16 13:18 165, 166, 180
5:6 16 14 152

67 170 1416 171

6:8 40 15:5 190

6:9 165 16:15 156

69-11 191, 215 17-18 171

615-17 290 1n19 187-93

7 152 171 16

oa 218 171-2 187

7214 165 1733 187

89 170 17:8 188

8:18 215 17:6 188

S:1-11 190 17:9-10 188

9:3-11 152 17:9-11 17

10-11 155, 170-71 17:10 166

10:1 57, 198 17:12 177

10:7 160 1713-14 189

ul 160 17:15 7

11:4 16 1716-17 189

1? 179 17:17 192

11:19 190 17:18 166, 189

12 171, 183 18:1 198

12-13 41 18:2 94, 190

12:1 16 18:4 190

1233 16,177 18:6-8 189

12:5-10 42 18:20 191

12:9 182 18:21 190

12:9-11 199 18:22-23 191
