Luke

13:19
1S 1F

John
3:16
8:32

17:17

Acts
Sift
16:15
19:13-16
20:7
25:9-12
25:11

Romans
1:18-23
4:24-27
9

10:14-15

13:4

13:8

T Corinthians
521-5
7:2-5

11:27-32

11:30

46
48

150

18

8
109

32, 147

144

81

144

148, 149

Scripture Index

I Corinthians
11:32

Galatians
3:9

Ephesians
4:28
5:19
5:22-27

1 Tinothy
2:12-13
5:3-16

HE Timothy
1S

Hebrews
4:9
8:7, 13
9:27-28

10:22-25

12:5-6

James
1:17
4:2
5:19-20

148

iit

7
155
144
