1:7
1:16
1:18
1:20
1:21
1:45-46
1:46
1:47
1:48-49
1:49
1:50
1:51
1:52-53
2:18
2:33
2:54
3:4
3:11-13
3:12
3:12-13

3:13
3:15
3:17
3:22
3:25-26
3:28
3:31
8:32
3:34
3:36-37
3:38
3:39

3:39-40
3:40
3:43
$:44-45

Scripture Index
37 3:46-51
37 3:47
15, 116
41 4:3
333 4:6
330 4:10
20, 24, 337 4:15
34-35 4:16
30 4:17-20
43, 358 4:20
31 4:21-22
34, 59 4:22-28
32 4:28
32 4:29-33
30 4:47
276 5
31n, 62 5:5-8
82 6:22-27
21, 352 6:27
336, 349-50, 71-3
352, 358 nT
85 7:7-8
30, 358 7:8
219 7:9
336 7:13-17
62 8:1-3
336 8:5-10
62 8:11
62 8:12-13
336, 358 $:14-19
62 8:17
285n 8:24
24, 30-31, 35, 921-2
336 9:5
356 9:9-13
84, 343 10:2
330, 336, 337 10:8
358-59 10:11

373

359
96, 97, 97n,
346
120n
63n
63
62-63
62
63
62
120
63
62
63
92
106
96
100
108
115
63
116, 124
62
116
117
119
119
119
120
120
362
120n
121
121
122
29
29
15n
