288

Leviticus

12

12:3
13-14
14:10
14:14
14:23
14:28

15
15:18
16
17:3-4
18
18:23
19:9-10
19:15
19:18
19:31
20

20:15
20:17
20:22-26
20:24-25
20:26
20:27
21:9
2143
2119
22h
22:14
22:27
22:28
23:3
23:5
23:7
23:10
23:10-14
23:11
23;15-16
23:15-21
23:17
23:39-43

The Law of the Covenant

266
16¢
216
164

80

164

80
258n.
57

102
210
62, 258n.
153
135
167

22

18

62, 154
153
150
422
154

66

18, 152
134
257n.
120n.
76, 82
135
266

21

55, 182, 183, 211
58

58

58

188

58

58

189
186, 186n., 189 bis
190

Leviticus

24:10-23
24:15
24:16
2417
24:19-20
24:20
24:22

25

25:13
25:20-22
25:25
25:26
25:35.
25398.
25:42
25:44
25:44-46
25:45
25:46
23:4781.
25:49

 

27:30-33
27:32

Numbers

t

1-4
1:4
13:16
3
312
5

5-6
5:5-8

53, 162
162
162

90
1168f,
120n.
90
100n,, 156n., 183, 203
133
183

36

76

135
135

22
210, 220, 230

227, 230

203

54

54

10in., 164, 209, 251
40, 55

141, 145

204 (outlined)

135
