Hosea
1-3

6:2

 

Matthew
1:19

 

256
18n., 145
58n,, 211

264
18

58n., 211

86
6n,

148
60
11, 17, 19
65
102
180
136
163
2

2
6n,
267
267
2
212
6n,
195

Scripture Index

Haggai
1-2
tl

Zechariah
$:18-21
353-4

13:7

Malachi
211-16
2:12
Qld
215
3:8
3:8-12

224
237

96
79
267

145
86
7
86
220
208

‘Tobit (Apocrypha)

TABLA

NEW TESTAMENT

Matthew
13:33
17:24-27
18:12-13
18: 2348.
213
21:44
22:34
22:36.

 

150

186, 186n.

233
267
136
232
123
163
19

295
