SCRIPTURE INDEX

Genesis 23:3-8 30
1:26-28 102 28:1-14 31, 129
3:17-18 1 $1:9-12 31
14:18 2, 45, 93, 112 33:10 185, 181, 182
15 92, 183
17 92 I Samuel
47:24 62 8: 15,17 20, 22, 60, 61, 132

Exodus 1 Kings
5:2 12 18:13-17 68
12:48 31, 35 18:19-35 68
18:12 114 19:4 68
19:6 45 19:35-37 68
20 92

TE Chronicles

Leviticus 31:4 15
2 143
27:2-8 31 Nehemiah

10:37-39 | 27

Numbers 10:38-39 123
18 139
18:1-22 27, 88 Psalms
18:21-22 87, 167, 181 37:25 49
18:24 27 50:10 126

90:10 178

Deuteronomy 110:2-4 45-46

4:5-8 32

8:17-18 21 Proverbs
