SCRIPTURE INDEX

Old Testament

Genesis

1:28 202, 307, 309
2:10 318
3:6-7 iL
3:17-18 5
3:17-19 i

15:16 160
Exodus

12:49 176, 284
18 323
19:8-6 3

20:5-6 139, 148, 333-334
20:16 142
31:10-13 266
Leviticus

4:1-3 156
21:10-13 98
26:3-12 4
26:40-44 4-5
Numbers

15:38 318
Deuteronomy

1:17 174
4:4-8 187
4:5-10 31-32
T-ALL 139-140

7:9 146
7:9-10 334
8:6-14 52
8:11-20 5-6
8:18 266
8:17-19 52
8:17-20 285
11:26-29 4
16:19 174
28 211, 266
28:1-14 4, 65
28:58-57 197
29,29 x, 155
31:10-138 188
BL:16-17 4
Judges

9:45 132
TI Samuel

22:7 98
I Chronicles
19:7 175.
Nehemiah

6:8 142
Job

42:12 107
