330 MILLENNIALISM AND SOCIAL THEORY

Masters’ view, 32-33
millennial views &, 310-13
models, 287
natrow definition, 31-33
platicude, 259, 327
quadrants, 320-21
Rapture and, xii
social theory and, 31
tract-passing, 145-46
evil (sec sin)
excommunication, 292, 305, 325
exile, 165-67, 171

faith, 337-38
false witness, 142
Falwell, Jerry, 247, 254
family, 221, 276-77
fat, 100
fear, 9
feast, 128
feedback, 53, 54-55, 57, 241,
257-58, 266, 284
Filmer, Robert, 35n
final judgment, 8, 43, 88, 139,
235
finitude, 56
Flood, 128, 130, 297
footstool, 220, 274-75, 280-81
foreign aid, 244
four corners, 318-23
Franklin, Ben, 186
French Revolution, 58
frontal assaults, 290-91
fruits, 32
fundamentalism
culture, 72
dualism, 198
humanism and, 290-91
responsibility denied, 188
futurology, 121-23

Gaffin, Richard
book cover, 219

clay jars, 224
confrontation, 222
crucifix, 228
deferred eschatology, 236
Eastern Orthodoxy, 222
final judgment, 235
golden era, 220
Great Commission, 228, 230
hermeneutics, 212-13
kingship, 220
masochism, 229-30
resurrection, 228
resurrection as suffering,

225
rhetoric, 228, 235-36
triumphalism, 222-23, 228

gangs, 304, 396

Geisler, Norman, 92-93, 147,
207

generations, 139-40, 148-49, 333,
336

German theology, xv-xvi

Geyer, Georgie, 304

ghetto, 24, 115, 117, 195, 230,
261, 270, 276

Gillette, Steve, 55

globe, 134

gluttony, 100

goals, 287-89

goats, 2, 262, 264

God
Adam and, &
amnesia?, 6
blessings of, 12
capricious?, xiv
changing the world, 202-3
chastening, 69
deliverance, 3, 9-10
enemics, 148
forgets sin, 6-7
guarantec, 179
historical sanction denied,

538
