Index 393

Westminster Theological Semi-

nary, 219 wrath to grace, 3, 7, 9, 10, 131,
Whitby, Daniel, 239 160

William of Occam, 35 Wycliffe, John, 289

Williams, Gary, 207

wine, 100, 131 yoke, 295

Wolfe, Tom, 196

work, 26 Zorn, Raymond, 87-88, 92

world, ix, 1
