Genesis

O53
12:3
14:13
34

Exodus
5:4
5:20-21
12:49
2013
2h
Qh?
2nd
21:16
21:18-19
22:20

 

SCRIPTURE INDEX
Old Testament

20:2-5

120

166
17

0

0

90, 123, 125, 164
127

113

Ml

128

138 .
ne 212-13
127

168 Hl Chronicles
a 19:7

120

14 Psalms

116 25:14
116-17, 134

4 Proverbs

136
119-20
15

 

 

138 34:4

13, 91
91
13-14
118, 126
126

16
90-91

175

98

12
12
