SCRIPTURE INDEX

OLD TESTAMENT
Genesis Exodus
1:2 104 8:32 133
1:14 84 9:7 133
1:14-16 18 9:8-11 126
1:16 84 9:8-12 123
3:8 86 9:12 133
4:10 Bt 9:18 145
TAL 105 9:18-26. 123, 149
8:2 105 9:22-26 96
8:20-21 70 9:24 145
9:13-17 70 9:34-35 133
15:9-12 102 10:4-20 123
15:16 83 10:12-15 104
15:18 M1 10:20 133
19:24-28 121 10:21-23 84, 101, 123
19:28 92 10:27 133
19:30-38 86 11:10 133
22:6 92 13:18 106
49:9-10 58 13:21-22 23, 131
49:25 104 14:8 133,
14:19-31 23,
Exodus 14:21-22 138
7:13 133 15:17 98
717-21 97, 123, 126 19:4 102
P21 100 19:16 91, 95
7:23 133 19:16-21 23
8:1-7 138 19:18 84, OF
B:2-4 123 21:23-25 129
8:12 138 25:16 55
8:15 133 25:21 55

8:19 133 32:15 54
