‘SCRIPTURE INDEX 159

Jonah Habakkuk
1:29 60 3:10 68
2:5-6 105 3:1 68, 69

3:12 68

Micah 3:16 68
3:6 8
414 49 Zephaniah

1:14-18 140

Nahum 2:4 85

1:3 3 .

1:4-8 85 Haggai

1:5 au 2:6 145
16 8 Zechariah

Habakkuk se 3
12 80 6:4-7 67
1:5-17 68 65 84
18 102 12:9 143
2:6 80 12:10 125
3 87 12:10-1t 143
3:3-4 67. 1B 144
3:5 68 4 144
3:6 68
3:8 68 Malachi
3:9 68, 69 3:2 86

NEW TESTAMENT

Matthew Matthew
1:17 3 12:45 3,4
9:17 125 16:4 3,4

11:10 26 16:18 97

11:16 3 16:19 90

12:39 3,4 V7? 3,4

1241 3 18:18 90

12:41-45 106f. 20-25 98

12:42 3 21:19 84
