SCRIPTURE INDEX

OLD TESTAMENT

Genesis
45 10:8-10
xii, 19, 135 10;22
109 11:t-4
22, 45, 61, 105 11:4
44, 45 12:
45 12:1-3
45 12:1-4
45 12:2
45 12:3
45 12:4-9
45 12:7
37 12:8
109 13:2
37 13:9
45 18:10
45, 46 13:15
75 13:17
46 14:1
46 14:1-20
46 14:1-24
19 14:5-7
6 14:13-17
37, 46 14:14-17
46 14:22
37 15:1
38 15:1-21
46 15:6
46 15:18-21
46 17:4
46 17:7
110 17:8
104 18:11-14
104 18:16-22

 

169

38

104

38

38

44
103, 110
37, 103
43, 44
44

48, 49
44

49

48

57

38

44

44

104

48

48

104
104

7

8

43

95, 110
26

43, 104
43

43

44

103

35
