172 The Changing of the Guard

1 Samuel
103 17:38-40 105
103 17:42-52 106
139 17:45, 66
7 17:45-49 68
23 17:50 66
18:1 73
18:1-3 73
103 18:1-14 70
19 18:1-16 82
139 18:6-7 66
18:8 83
18:10-1i 67
103 18:16 66
20 18:17-18 73
131 18:20-30 70
20 19:2 66
20 19:8 68
135 19:11-18 82
56, 135 21:10-22:4 66
136 22:5 66
136, 137 23:1-14 val
137 23:1-29 70
137 24:2-B 65, 73
57 24:6 73
80 24:16-19 66
95 24:20 66
80
rd 2 Sarnuel
75 2:4 21
106 49-12 7
69, 105 813-14 71
57 8:15 7
21 9:1-13 71, 73
103 9:7 7
66 10:12 70
66 1231-13 128
21 22:31-32 60
66 23:3 54
3 1 Kings
69 2:4 55, 82
21 21-11 70

 

70 3:3-14 95
