2 Samuel
15:13
15:14
21:18-22

2 Kings
B:4
17:8-24
17:20
48:28

2 Kings
4:8-37
15:34-35
171-41
24: 1-20

Neherniah
4:10
521-5
5:3
5:6-13
5:3
9:14

Job
4:3
27:16-17
29:12-17
29:16
31:16
32:21

Psatms
9:7-9.
10:16
12:5
18:1-3
19:7-15
241
24:3-6
29:11
33:5
35:9-10
441-2
41:3
65:3-7
68:5-6
7213
7214
73:16-20

161
161
229

134
81, 261
81, 261
133

81, 261
134
189
189

214
105-106
107
107
106
209

xiv
161-62
xiv
219
81, 261
203

203
219

204

192

66, 227

227

198

35

203,

204

35, 199, 218
38, 199

194

192, 204
218

218

216

Scripture Index

82:4
84:1-12
85:8
85:14
89:3
94:6
103:6
105:42
107:1-9
109:30-31
119:1-2
119:105
14012
146:5-9
146:8-9

21:17
22:9
22:13
23:19-20
23:21
23;29-35
24:30-34

 

279

219
200-01
35

194
209
212
203
209
192
204
227

67

204
204, 212
81, 261

216

65

216
208

35

34

34

35

65, 246
34, 120
203

35

 
