Jokn
1
14
1:29

3:5-7
3:16
3:18
4:42
6:15
6:26
8:12
8:31-47
8:36b

10:30
14:15
14:30
15:14
18:36a,
18:37
19:9
19:10
19:11
20:24-27

Acts
1:6-8

4:1-31
4:12
4:18
4:25
5217-42
5:18
5:20
5:29
10:15

12:1-3
12:6-8
12:21-23

90, 94

124

150

121

91

123, 150, 171
87

150

119

119

154
104

173

88, 175
103, 10¢

173
104
104
103, 104
124
173
105
105

Scripture Index

Acts

12:22
12:23
17:6
17:7
17:25
20:27
23:12-31
24:25
25:11
26:28-29

Romans
1:18-23
1:18-32
3:23
3:31
6:5
BF-AZ
7AS
8:18-25,
8:28
9:6-8
9:17

12:2

12:19

13

13:1

13:1-4

13:1-7

13:3

13:4

13:5
13:6
13:7
13:8
13:17-18
1414
14:20
£5:14

249

it
i

116, 151

88, 117, 149, 175
70

173, 184

78, 106

14

78, 106

107

10, 15, 34, 44, 76, 80, 92,
93, 95, 102, 107, 109,
129, 140, 141, 166, 207

1

92, 93

101, 138

173

79

124

124

181
