392

Micah
4:1-3
4:1-4
5:2-4
5:16-17
7216-17

Matthew
3:2
312

4:12
4:12-17
4:16
4:17
4:23

5217-20
5:18

5:18-19
5:20

House Divided

Nahum
197 3:4
m2
no Habakkuk
34, 100 2:6
229 2314-20
229 -
He
155 faggai
2.78.
t Zechariah
” 9:7
9:9
9:9-10
29 42.14
29
Malocki
tld
155 2:7-8
198 3
155 324-12
155 3:16
155 4:5-6
NEW TESTAMENT
Matthew
180 5:21-48
369 5:48
” 6:10
180 6:13
178 6:33
187 72
180 75
4161, 173, 194, 210 7:12
104-5 7:24
18, 40-41, 95, 103-10, 123 7:24-27
196, 132, 338, 339 © 8:11-12
75 9:13
8 9:35
178 10:7

166, 173

156
273

156

156

275

33, 40

37, 95, 300
34, 25

106

4

oA

64

7

178

2

35, 165, 173
wu

161, 173, 194, 210
180
