324 Trroucn New Eves

Exodus Exodus
3:7 85, 198 18:12 202
3:8 130 18:13-27 130
3313-15 130 19-24 156
3:16 197 19:4 97
318 188 19:12 213
4:2-5 85 19:16-18 85
4:29 197 19:16 48
3:3 188 19:18 48, 159, 212
62-8 130 19:19-24 213
6:3-8 198 19:22 213
6:23 188, 307 19:24 213
7:10-12 a5 20 48, 262
7:15 85 20-23 130
77 85 20:1-11 118
7:20 85f. 20:2 130
8:5 86 20:3 130
8:16 86 20:4 144
8:19 24 20:10 98
9:3 86 20:11 10, 144
9:8 86 20:24-25 147
9:15 86 20:25 285
9:22-23 86 21-23 205
10:12 86 21:2 188
10:13 86 21:28-29 96
10:21-23 63 23317 205
10:28 186 23:20-21 58
12 185 23:30-32 131
12:12 186 23:25-33 130
12:22 86 2a 188
12:29 294 24:4 213, 214
12:35-36 186 24:5, 213
13:21-22 48 24:8 214
14:16 86 24:10 46, 213
14:19-20 63 24:12 70
14:21 86 256. 172
14:26 86 25:1-9 187
15:3 5 25:7 73
15:12 24 25:17-19 269
15:16 24 25:31-40 86
15:17 90 25:40 49, 117
15:26 25 26:15-25 1
15:27 91 26:31 113
16 109 26:32 91
16:7 47f. 26:37 a
16:10 47f. 28:9-12 73, 276
16:31 74 28:34-35 216
17;2-6 70 30:22-33 86
17:5-6 86 32:2-4 187
171 86 32:7-14 139
18 202 32:28-29 213

18-24 205 32;30-35 139
