Exodus
33:7-11
33:20
33:22
33:23
34:25

35
B7:17-24
40:9
40:20
40:34:38
40:34
40:35

Leviticus
1:3

1:5
9

211-12

eno noe

4:1-21
4:1-5:10
4:22-35
a
7:13
8:12
9:24
10:1-2
10:1-6
ay
11-15
11:2-8
11:9-12
11:13-23
11:27
11:29-38
11:32-35
14:4
14:6
14:49-52
16
16:4
16:11-14
16:14-45
16:15-16
16:15
16:23-24
18:6-18
18:24-28
18:29
19:19

198
24
72
24
205
158
86
191
131
205
48
274

aa
125
125
297
313
207
215

99

215
207
313
191
236
113, 236
188

13, 101
137, 2008.
402

102
102
102
102
102

86

86

86

138
268
215
206
215
268
268
198
277
305
297

Scripture Index

Leviticus
20
21:20-12
23:3

 

211, 297
263

296

24

98

106
205
223
148f., 205f,, 231
61
205
112
234
112
213
173
73
64
24
139
139
191
173
86
113
86
86
86
276
202
276

325
