332 THroucH New Eyes

Exekiel Exehiel
1:1 309 44 246
A. 2 45:18 246
1:4 ff. 150 aa 246, 249
14-28 48, 112 47:3-5 285f.
1:10 99, 148 A712 82
1:22:26 46 48 210, 246
3:18, 42
7:2 147 Daniel
Bil 48, 214, 244 1 250
10:1ff. 42 1:8 251
11228, 42 2 72
12 244 234-35 156, 285
16:10 214 3 250
17 91, 92, 227 3:1 16
17:22 244 4 15, 154, 185, 186
17:22-23 87 #1412 87
17:23 82 41415 87
24:16-18 309 4:16 87
24:16-27 2446 4:20-33 87
w 245 6 154, 250
26-28 75, 245 6:7 186
27:25-36 100 626-27 186
28:13-14 74. 7 96
28:14 8 7:23 146
26:15-21 75 7:27 250
28:16 6 8:18 300
29-32 245 10:9 300
29:6-7 86 11-12 310
31:89 8 12:3 46
31:16 75
245 Hosea
63 : 5:14 97
63 11:10 97
245 13:7 97
245 13:8 7
296 14:5-8 836.
75, 245
245 Jeet
310 2 66
246 4 63
50, 172, 245f., 252 2:2 64
246 2:10 64
231 2:12, 64
99 2:28-29 64, 140
OL 2:30 64
246 2:31 64f.
294 2:32 65
42 315 66
159
302 Amos

158f., 301 3:7 139

 
