Amos
4c1
5:8
7:2
73
9:15

Obadiah
17

4:6-8

Micah
212

Zephaniah
2:16
3:6
3:17

Haggai
12
2:3
2:4-9
226-7

Zechariah
1-6
at
1:1-17
1:8-11

Matthew

G

Ore uso
&

5217-20
5:20-48
5:27-30
5:29-30
5:34

5:35

5:38:42

a7
59, 212
140
140
90

65

83

7

148
148
25

155
251
251
66

294, 2514.
251
252
92

307
259

100

276

156

2608, 311
199

263

308

42

207

263

Scripture Index

Zechariah
1:18-22
231-13
2:6
2:8
3
3:1-10
3:5

3:5-9

3:9

4

4:1-14

4:3

4:6-10

a7
4:11-12
4:14
5:1-4
535-11
6

ol
6:1-9
6:10-11

10:4

14:4

14:20

Malachi
214
41
4n1-2
4:2

NEW TESTAMENT

6322-23

7:24-25
10:28
11:3
117-14
11;29-30
12:28
12:43
13:10-17
13:24-30
18:31-32
13:33
13:43

252
252
254
24
244, 276
2528.
277
216
207
276
253
‘a6f,
87
163
86
87
253
253
1508, 152
251
2536,
186
148
86
277

136
54, 57

+ 294

54, 57, 66

216
72
308
140
140
199
24
176
263
286
82, 92, 286
286
54

333
