THE DOMINION COVENANT: GENESIS

 

Acts
437 17:28 84, 493
236, 430 17:32 361
221
8, 447 Romans
452 1:18-20 6
70 41:18+23 428
445 1:19 38, 42
31, 76, 173, 217, 440 1:20 2
3h 1:20-25  433f
660 2:15 434, 438
5 35
Mark 4:8 109, 439
6:7-8 449 512 446
T6-13 170 S:12-21 439
8:36 101 8:6 118
8:15 450
Luke 8218-23 113, 448¢
1:30-33 173 8:19-23 BB
2:14 451 8:21 33
4:4 38 8:24 33
4:7 317 8:28 441
9:60 447 8:28-30 436
1247-48 116 9 264
12:48 107 9:8 451
16:27-31 434 9:10-13 178, 183, 187, 451
23:43 76, 88 Q:1l-1t 189
9:16 396
John 9218-21 435f
1 443, 11:34-36 443,
1:3 428 11:36 429
111-13 480 16:20 173
1:18 201
5:24 447t I Corinthians
6:46 201 119-2113
8:44 437 1:20 430
8:56 163 2:16 76
14:9 201 39
15:13 217, 465 439
17:24 443 440
20:30-31 428 4526
27, 437, 448, 461
Acts 433
7:2 452 215
15:18 435 215
17:24:28 361 29, 440
17;26 450, 469 xiii, 106

 
