I Corinthians
11

11:1-12
11:8-9

12
12:12-20
12:12-17
14:33

 

15:39-57
15:45

Lf Corinthians
6:2

6:16
8:9

12:4

Galatians
3:29
4:3-5
616

Ephesians
1
1:4-5
1:10
1314
2.
2:8-9
2:11-16
5:16
6:10-18

  

Philippians
2:10
212
314
3;18-19
3:20
3:21

Scripture Index

 

 

 

 

  

Colossians
xiii, 91 1
91 428
91, 133 98
91 430
76 187
98
435 IE Thessalonians
454 12 186
440 QAL-12 te
2
2 1 Timothy
448 3 113n
89 : 177
447 6:6-8 215
451
IT Timothy
3:16 429
105 316-17 444
433 440
109 89
88
Hebrews
: 430
173 429
: 76
450 Ry
173, 454 a
438
xiii
236, 436 70
450f Mo
178 438
76 453
428 1
173, 451 190
98 185
‘at 178, 187, 190
440
447
27 439, 446
24, 42, 108, 147, 439 98
89 98
189
441 I Pater
453 4:6 448

483
