viii THE DOMINION COVENANT: GENESIS

APPENDIX B—The Evolutionists’ Defense of the Market ... . 323
APPENDIX C—Cosmologies in Conflict:

Creation vs. Evolution ...............0.06 357
APPENDIX D-— Basic Implications of the Six-Day Creation . . 425
APPENDIX E— Witnesses and Judges . : ». 455
BIBLIOGRAPHY ..............0.2 0. eee en . 471
SCRIPTUREINDEX ...............2.0255 -477
GENERAL INDEX . . . . . 485
WHAT IS THEICE? .................0.005 . 507

 

  

 
