 

 

 

 

 

 

 

 

 

 

 

 

 

 

 

 

5 ; it
BequvA' <AaRi vada aedieade o; I
‘ 3 : i fe ! iy
¢ ! is
g ;
2 sole ae wi we ws : Iowa ee
gxeaai te di SN k Haws,
& : : , oe 1S : :
* LT ‘Ts ‘TS ‘TS '
2 hag {oO aS (1A '
ELS 1 as : 6 » [ae # 1 [ae '

emo A

Answer Keys for Liberating Planet Earth

14.
15.
16.
17

 

 

 

Page # Question Answer
a,
25.
CHAPTER 7
1
2.
3.
4,
5.
6.
7,
8
9.

51.
52.

 

 

 

 

 

 

 

 

 

 

 

 

53.

 

 

 
