TABLE OF CONTENTS

 

1. A Moral Dilemma Facing Christians .............-- 1
2. God’s Covenant Lawsuit .........6 0.00 e cece eee 7
3. Obedience to God and Not toMen ........0...004 12
4, Criticisms of Operation Rescue .......-.....-5-5+ 23
Gonelusion 6.06.6 38

itt
