24:7-8
21:7-11

 

TOOLS OF DOMINION

182

847

675, 831

437, 443, 498, 675,
728, 834, 842, 844,
1013, 1049

903

520n

520n

124

816

71, 93, 397

671, 766

884

877

820

830

93

1049

1133

913

861, 867, 977

643,

770

532

152

124

123, 209, 210, 244

120

212, 264, 481

135, 139, 193,
195, 247

218, 298n, 316n,
406n, 782

218, 259

248

Exodus
21:8
21:9
21:12
21:14
24:15
21:16

QUs17
21:18
2118-19
219
21:20
21:20-21
21:21
21:22
21:22-23
21;22-95

21:24-25
21:25
21:26-27
21:28
21:28-30
21:28-31
21:28-32
21:29
21:29-30
21:30
24:31
21:32

21:33-34
21:34
21:35,
21:35-36
21:36
22:1

2221-4
22:2
22:3
22:4

173, 261

216

301, 318, 403-4, 1049

309

278, 283, 301, 318

49, 301, 318, 321,
373, 518, 1054

278, 283, 301, 318

348

339, 345, 382, 458

301

1049

129, 389, 360, 386n

362

384, 432

418

47, 343-44, 381, 385,
413, 4500

418

430

200, 361, 437

465, 1157

475

456

438

419, 481, 496

346, 1157

419, 420, 432, 462

482

136n, 225, 326, 480,
652n, 656

458, 485, 777

317

459, 467, 497

468, 495, 77

469, 501, 522n

322, 393, 505, 512,
524, 614, 616n,
633, 679

634

638

117, 135, 337, 1052

393, 458, 511, 614,
633
