SCRIPTURE INDEX

 

   

Jeremiah Ezekiel
38:40 320 91 24
49:12 364 S220 397, 398
49:13 264 a 258
so-s1 423, 431 129 5z2n
50:8 409 $220 21, 23, 114, 426
50:15 450 pe 397
50:29 450 327, Stan 407
50:38 4am 1520 $22n
$16 ag 9 21, 23, 205, 206 aur
517 364, 430 5:46 31, 342 439
31:9 273, 449 9:10 5220 a9
sueia a3 10 21, 185, 338 a9
S128 28 10:1 $220 164
51:27 246 iO 520 471
$1:32 4070 10:12 4B $22n
S34 304 101819 $52 522n
51:36 4070 1 522n 250
‘SL:42 238 352 244
5161-64 461 2h 21
4 484
Lamentations 5220 456
1 297 7 5220
Le 239 398 5220
Lib 439 17, 191 463
13s 356 41 150, 429, 463,
ant 553 21, 23, 114, 297, S87
213 356 416-27 34
315 240 464 5220
39 240 a4 aa
a4 22 266n 244
4:19 241 16:11-14 429 196
421 364 1 522n 64, 240, 405
16:14-15 1 197
356 20
21, 185, 338 427 5220
250, 260 MOR 234
155 427, 5220 $220
260 427 87, S14
156 a7 556, 569
155, $220 32n 21, 536
247, 424, 473 a7 88, 283
3220 439 ra]
259 439 546
155, 384, $22n 439 536
150, 186 $220 21, 520-24
260 430 5
260 BL 522, $22n
21, 22 281 521
21 395 250, 522
co) $22n $21
168 42n 250, 521
268 522n 285
4a 483 197
247 264 21, 490, 936
268, 326 398 S22n
3 398 250
70 398 S22
at $22n 522
189 S220 522
21 398 2Al, 490
22m 307 2
ais 37 21, 272, 273
430 37 21, 536

   
