 

317
so2n

123, 517, 661
si?

us

446

284

300n,

457

in

223, $49, 569
387, 446, 572

102

337

314, 237, 387
2

446
357, 483
In, 446
207

THE DAYS OF VENGEANCE

341
4lin
347

2
283, 332, 428

2
413, 548
oar

357

152
373, 552
203

439n

170, 275n
a7

69, 139, 519
494

a

398, 502
9n
258

448

38t

284

258

448

281

300

362

692

 

     
 

141, 388, 389
194, 258, 283,
466

432
