THE DAYS OF VENGEANCE

18:3 258, 448, 458,

550, 569

468

21, 188, 467-92,
608, 610

468

8.72

480

47, 382, 467-68,

  

114, 258, 291,
382, 530, 369

19:3 472, 482

19:4 152, 468, 472,

33, 545

136, 457, 482,
518, 550

44, 473, 475-78,
482, 518, 574,
509

 

1939-13 482

19:10 27, 291, 382,
389, 432,
478-80, 514,
374, 575

19:41 147, 1$dn,
481-83, 499,
529, 574, 609

191113 187

19:11-16

 

 

 

Asin

483-84

In, 481, 484

122,

17m, 408,
485.88, 526

387, 488-89
300n, 481, 499,
09

47, 242, 489-91
270, 3410

117, 481, 499
47, 491-92

251, 297n, 336,
408, 499, 529,

Revelation

 

    
 
     

574
413, 547, 548-49
540

251, 258, 550,
578

38i, 418, 422,
$46, S52, 556,
566, 596

47, $80-51

83, 343, 525

28, 431, 518,
GL

552-54

$57, $69

209, 382

182, 212, 584-56
24’

$55, $78
343, 561-63, 569

446, 550, 57B

569-70

131, 382, $76,
él

570-73, $79

42, 82, $07, 568,
469

35, 574-15

47, $65, 573-74

4, 27, 54, 96,
518, $68

72, 565

478, 515-76

369

27, 43, $5, 263,
576

37

96, 533, 565

si

565

27, 54, 518, 568,
395, 577-78

258, 439, 550, 578

565, 573, 518-79

in, 579

565

27, 129, 580

45

96, 192, $65

580

578
