SCRIPTURE INDEX

OLD TESTAMENT

Genesis Deuteronomy
212 19 31.1013 143
2453 2
qiaiz US 7 Samuel
47:15 1 8.14-15 23
47:19-23 5 T Samael
Exodus 241-17 23
3-22 a .
20:15 37 1 Kings
22:11-12 87 6 a
22:92-24 46, 52 748-51 21
22:25 6 10:14 23
22:26-27 80
Ble1 = 143 IE Kings
3012-14 98 1519 19
23:33 23
Lenticus
15 a IE Chronuctes
1935-36 29 74 123 \
25:35-37 76-77 25:6 23
27:5 23
Deuteronomy
BER 128 . Proverbs
15:1-3 142 13-22 1
15:12-15 143 20:23 113
17:6 41 22:7 143
28:1-14 41 22: Tb 103
28:12 110, 144 28:8 nT
2815-68 Al, 137 .
2843-44 110, 144 Ecclesiastes
319-13 9-13 8:15b 150-51

165
