390

Exodus
114
4:15-16
1:15-19

8:5-7

8:19

104

MOSES AND PHARAOH

Exodus
B:22
8:22-24
8:25
8:26
8:28
8:32

10:7-10
10:15,
10:22
10:23
10:24
10:26
10:28
Att
11:2
11:3
14:7
11:10
12:3
12:10
1211
12:11-12
12:13
1215
12:19
12:19a
12:23
12:26-27
12:29
12:30

105
376

124

124
124, 125
124

124

310

274
106, 376
106

32, 44
109, 130, 297, 314
310
106-7
310

309

309

274

107

116

119

125

310

310

376

124

125

125

85

86

132

132, 135
127

274

159

151

142

143
158, 160
188

160

143

159

310

87, 144, 310
