392 MOSES AND PHARAOH

Leviticus Deuteronomy
194-95 117 195
193-94 Qin
193 21n
194 320
81 196, 199-200
8i 133-34
24
326
19n 154, 183
22 264
250 328
250 279
250 146
250 270
19n 2
247 2, 149, 328-29
146n 149
276 195
257 195
280 195
12 81
257 249
134 194
150 194
10 42
80 259
23 2
23 ai
249 179
250 82
248, 250 at, 179
166 179
166 247, 250
329 194
23 183
22 182
” 198
i
186 183, 185
166 192
166 190
12 193
195 189-90
256 190
18 328
378 193

 
