304

Proverbs
21:1
25:21-22

Isaiah
11:4
11:6-9
11:16
19
28:9-10
28:13
35:1
35:5-6
40:6-8
56:12
61:11
65:25
66:22

Jeremiah
2:6
6:14
76-7
7:20
8:13

17:7-8

 

Matthew

1:5
11g
2:13-14
2:15
2:20-21

B47
4:12

MOSES AND PHARAOH

 

Ezekiel

130 31-3

173 13:10a
17:1-10
17:23-24

154 21:26

265 21:27

136 29:3

159 36:26-29

156 37

156, 174, 186

273 Daniel

356 35

266 6:14

270 FAS 14

273 12:1-3

270

270 Hosea
13:4

136 Micah

4 G:6-8

195

266 Habakkuk

266 2:4

266 Zephaniah

298 2:8-9

81 7:40

381

381 Malachi

38! 3:5

NEW TESTAMENT

Matthew

191 49

190 513

207 5:48

377 6:24

377 7:16-20

377 9:17

24 11:30,

282 12:28

380 12:30

168

266
266
187
186-87
108
298

42

89
146
163

136

40

190-192

190n
195,

195

184

167
182, 282
115

153
171, 379
255

405

91
