Index 419

work ethic, 101 Yogananda, Parahamsa, 257n
work of law, 237-39 yoke, 255.
worship (State-approved), 128
wrestling, 377 vek, 288
Wunderlich, Hans Georg, 324, 371, zero growth, 26
373-74 zero population growth, $26, 336, 368
Zimmern, Alfred, 46n, 198
Yahuda, A. S., 89n Zipporah, 377
Yaron, Reuven, 85n ZPG, see “zero population growth”

yeast, see “leaven”
