Scripture Index

Proverbs Isaiah
11:12 62 60:6-9
14:34 68 60:12
21:17 54 60:22
23:32 192n 61:1-3
28:12 62 65:20
29:2 62 66:1
66:8
Ecclesiastes 56.23
6:6 91 ;
Bil 225 Jeremiah
12:1-2 135n 2:9
4:13
Isaiah 74
2:2-3 93 7:29
9 190 9:15
9:2 15 23:2
9:6-7 101 23:15
9:7 190 29:5-6
10:5 238 29:11
10:12 238 30:7
10:24-27 238 30:20
11 190 32:25
11:6-7 92 49:16
11:6-9 93
11:9 85, 191 Lamentations
13:9-20 135n, 3:15
13:10 135 3119
14:12 136
19:1 138 Ezekiel
24:23 125 Ih-4
OTA 192n 7:5-19
30:17 1 811
33:20-21 92 B:2
34:4-10 135n, 8:3
3 92 8:8
40:11 144 11:19-20
46:9-10 74 28:11-19
49:18-22 93 30
52:7-10 142 30:7
54:13 92 32:7-18

55:8 35 36:26-27

132
135n
124
124
137
144
137

52

184
226
118
238

137
137

123
123
129, 133, 240
124
129
124
204
239
135n
135
135
63

265
