136 CONSPIRACY: A BIBLICAL VIEW

Stalin, Joseph, 19

State, 36, 42, 89-90, 94, 100
study groups, 106-107
Summit Ministries, 103
Supreme Court, 16

Sutton, Anthony, 64-66

taxes, 45.

the Federalist, 36

theological liberalism, 26-27

Toffer, Alvin, 85

Trilateral Commission, 52-5
3

United Nations, 49
unity, 41-42, 43, 46-48,
114

Van Til, Cornelius, 39
victary, 98
voters, 85-86, 91, 93, 94

Wales, xvi

war, 1, 63, 73

Warren Commission, 4, 60
Washington, George, 39
Weishaupt, Adam, 50

will to resist, 110

Wizard of Oz, 23

World War I, 67

World. War {, 67, 83
