26:6
26:7-10
26:9
26:9-10
26:11-12
26:13-17
26:18
26:21-22
26:23-26
26:27-29
26:31-35
26:32-35
26:33-35
26:38-39
26:40-42
26:43
26:46
27:2-8

27:3
27:5
27:6-7
27:8
279-13
27:9-15
27:10
27:13
27:14-15
27:15
27:16
27:16-19
27;16-21
27:16-25
27:19
27:19-21
27:20-21

Scripture Index

455

455

557

219, 556, 569
8

573, 644

574

574

574-75

575

576

312

417

577

577

576

577

170, 580, 583,
587, 592, 593,
601, 617, 642
409

590

590

593

586

594, 643

621

587

586, 597

587

617

595-96, 600
587n

586

587

138

285, 432, 599,
606, 617

 

27:22-23
27:24
27:25
27:26
27:28-29
27:30-33
27:30-37
27:31-33

Numbers
1-10
1:46
3:43

5:22
5:28
6:13-20
6:20
9:10-11
10:11-12
11-25
12:10
13

13:6
13:17-20
14
14:28-35
14:32
14:37
14:39.44
15:5

16

18
18:2-3
18:7

661

612-13
613
409
587
583
619
644
115

xbviii
15n
15n
591n
139
464
64
64
65
li
156
24
303
xbviii
462n
300
471
303
xlvii
300
300
301
301
153
253
43
138
138
