662

18:21-24
18:26-28
19:11-12
21:6
21:62
25:8
26:36
26:51
26:62
27:9-11
28:7
28:26-27

 

LEVITIGUS: AN RKGONOMIG GOMMENTARY

138
365
356n
480

14

95n
xviii
14, 418
418
588
153
357n
142

15

142
588
359
50n
471
475
586
587, 598
464
464
464
464

17
202, 283

Deuteronomy

4:4-8

 

6, 24, 309, 329,
455, 629.

422

273, 468

282

339

339

152

7:15
7:16

8:7-9
8:17
8:17-18
8:19-20
11:14
13:6-11
13:12-17
14:22
14:22-23
14:26
14:26-29
14:27-29

 

15:12
15:13-14
15:14-15
15:7
16:2-6
16:13-17
16:19
16:20

17

17:6
UT
17:8-13
17:16-17
17:18-19
20:10-20
21:1-9
21:18-21
21:20

186
183-84, 333,
414

339

163

459

184, 314
152

327, 350
425

109

302

152

70

302-3

402

57, 400, 493
481

403, 487
18

493, 497
401, 496
498, 530
170

14

15

363

357

156

257, 297
161, 184, 336
259

258

257, 258
455

315n, 329
646

159n
