6:16-27
6:34-35
10:29
10:30-35
11:4
12:42-44
12:42-48
12:47-48
12:48
14:34-35
16:16
16:24
21:20-24
23:34.

John
1:1-3
1:12
2:10
3:36
4:18-25
921-3
10:10
11:49-52
15:26
16:13
17:14
17:17
19:32-27
23:34

Acis

2
742-43
8:26-40
16

Scripture Index

540
207
491

23

23, 487
55

115
114
xiii, 244
95, 578
650
584n
244n
628.
1ig

548n
390, 514, 612
157
xxi, 633
187

231

7

546n
548n
548n
548n
548n
44

119

78, 610, 647
325

47in

280n, 639, 654n

10:15

Romans
1:18-22
2:14-16
3:23
4:8-18
5
5:12-14
6:23
8:28-29
8:32
8:33-34
9:3-5
10:9-10
10:10
12
12:1-2
12:19
12:20
13:1-7

13:4
13:8
13:10
20:14-15

667
346, 347

543, 633
632

508n

521

633

631

375

520

237

520

520

145

56n

214, 254-55
8t

264

491

xxxii, 208, 267,
272n

141, 264
226

264, 313, 550
526

1 Corinthians

5:7

8

8:9
11:28-29
11:30

12

14:34-35
15:45

44

280n, 654n
158n

82

141, 456-57
132, 214, 254-
55

93n

84, 508
