344 THE SINAI STRATEGY

1 Corinthians I Thessalonians
10:13 11, 280 5:15 118
it 247
44:1 199 1 Timothy
11:21 8t 2:14 xii, 73
14:28-32 xvii 3 312
12 1a 5:28 xviii
14:15 247 5:8 xvii
15 119 6:6-8 204
18:49 198
16:2 78, 276 66-10 199
, 6:7-10 223
1 Corinthians 59-10 204
6:14 127
6.18 76a Hebrews
11:3 3 10;24-25 244
1244 97 10:25 248
10:30 117
Galatians
4:1-2 114-42 James
4 276 32-10 63
5:19-21 128 3214-16 199
8:21 125
I Peter
Ephesians 2:9 281-82
5:20-23 xix 3:17 58
522-31 127 3:7 125
5:22-33 58 3.9 1B
5:23 141
63 94 Jade
Philippians 8 54
2:12 198, 320 ,
4ch4 204 Revelation
41213 204 118 119
8 xiv
Colessians 12:4 xiv
2:16 241, 242 20 89
2316-17 276 20:14 53, 120, 215

3:16 247 21:8 125
