380

Numbers
4

Deuteronomy
1210-41
4:16
4:5-8
47
8:17
8:18

16:19

24:16

25:4

97:19

28

98:1-14

28:15-68

32:17

Joshua
1:1-9
2
2:8-14
7

Judges
210-19
6:1-18

I Samuel
2:25

2 Samuel
10-11

1 Kings
6

11:29-40

20:28

I Chronicles

22:10

The Reduction of Christianity

2 Chronicles
271 1:2
Ezra
40 1:14
325, 332
286 lob
71 J 12
272 ta
a 1:6-22
2:1-10
332
331 10:4
332 27:16-17
26, 340 Poalms
sexi
xxii 1:2
133 2
21-6
2:6
184 2:3
137 2:9
53 2:10-12
37 8:4-6
8:6
Q7:1
214 50:10
53 51:4
76:10
82
82 82:1-6
82:1
82:6
1
a 82:7
82:8
2 84:10
271 90:4
22 96:5
10:1
10:11
324 139:7-10

325

275

215
283
133
133.
152
26

9

141
138
214
aun
219, 242
227
222-23
22h
248

40

72

272

95
77-83
79, 324
75, 76-83, 324
324

83

40

40

133.
214

87

a
