238

transfer, principle of, 94
troth, 188

unfsithfulness, 27

U.S. Constitution, 214, 221
U.S., Labor Department, 5
unwed mothers 5

Uriah, 65

vacation, 187
Valentinian IL, 13
vassal, 215

Voth, Dr. Harold, 5

Second Chance

vulnerability, 126

‘Wall Street Journal, 6

war, 219

Weitzman, Lenore, 99

welfare, 104

‘Westminster Confession of Faith, 40
widows, 202, 206

witchcraft, 51, 57

witnesses, 183, 198

work, 59

zombie, 34
