 

THE GREATNESS OF THE GREAT COMMISSION

68, 69

12

12

55, 103, 142
12, 80

12

55

103, 142

80

142

80

96

70

74

70

72

70

142

140

74

104, 142
106, 142

x, 70, 71, 74
81, 96
x, 70
74, 81
7

92
140
70

74

96

71

 

 

16:5-15
16:13
16:33
17:4
17:15
17:17
17:21-23
18:33-37
18:38
19:4-16
19:30
20:19

81, 89
29, 47, 65
95

72

82

41

103, 142
384

31

7

34

82

81, 87, 89
89

141
93

93

82, 93
75

130
82

72

87

93

82
101
80, 89
82

89
