Scripture Index

8:38 86, 89 18:8
9:1-3 72 18:9-10
95 82 18:23, 27
9:10 72 191
9:15 118 19:1-6
9:17 82 19:5
9:18 86 19:9
O:19fF 72 19:10
9:27 82 19:23
9:29 82 19:30
9:36 72 20:1
9:38 72 20:7
10:36 56, 82 20:20-28
10:47F 81, 86, 89 20:24
11:14 87 20:26-28
11:16, 17 81, 82 20:28, 31
11:20 82 20:30
11:26 72 20:35
13:23 20, 82 21:4
18:32 20 21:18
18:33-34 34 21:16
18:52 72 22:8
14:20 72 22:16
14:21 100, 106 2311-5
14:22, 28 72 24:14
14:23 115 24:15
15:1-2 116 24:22
15:4-18 116, 141 25:16
15:10 72 25:24-31
15:11 82 26:6
15:14 106 26:15
15:20-23 116 26:16-18
15:26 82 26:18-20
15:28 116 28:31
16:1 72

16:4 116 Romans
16:14-15 86, 89 11-2
16:31 82, 87 13
16:33-34 89 1:4
17E 78, 130 1:16
17:24 55 1:18-21
17:26-31 31, 51,77 121

17:28 8 2312-15

169

‘71, 114, 132
93, 116
72

82

72

82

72

82

81

70

72

142

72

51

8

20

82

82, 83, 96
81

82

10

7, 32,

31, 32, 33
94, 108

xi
72
7
