Scripture Index 207

6:11 143
Ab:1 175
Colossians
James
1:18 96, 97
1:25 107
2:10 100, 107
II Thessalonians 2:17 105
28 128, 129
I Peter
I Timothy 2:1-3 104
1:8 100
3:2 1l4 I John
41 91
4:5 105 1:9 102
5:18 86 21 101
6:15 125 2:5 58
3:4 101
5:21-24 58
If Timothy 3:24 105
5:3 58
3:16 105
3:16-17 85, 126
Revelation
Titus 19:15 30
22:14 58
214 104
Hebrews

8:9-13 84
