302

21:44
25:32
26:15,
26:31
27:2-10
27:4
27:6

10:17-19
12:46-48,
12:47-48
14:28-30

23:34

Jokn
7:53-8:11

5:11

10:34
12:7

15:20
21:33,
25:11

Romans
1:20
1:22-23

142
27

151
195,
151

37

123

63

20, 75, 251, 262
261

47

25, 34, 35, 43

BESEEREE

15-16
3

VICTIM’S RIGHTS

2214-15
2:22
3:23
6:23
BIZ
F9AZ
9
uy
12:17-13:7
12:19
13:1-7
13:4
13:8

1 Corinthians
214
S:11-15
5:5
7:23
a9

10:21

11:30

Galatians
5
6:7-8

Ephesians
5:16

Philippians
2:12
3:20

1 Timothy
4:10
5117-18

Hebrevs
2:14-18
8
9g
9:12-14

232
68

224
180

138

32, 43
91

108, 224
30, 12k

238, 253
157n

184

ri)
186-187
194

24
239

83
136

76

66, 115

194

244

239
244
