306

Genesis

21:22. 93

23 92, 93
24:15 232
24:32 222
24:50 232
24:53 232
232
232
232
94

101
94,97
94
oat.
97

95, 101
gmt.
97

97

97

98

 

 

31-44-46 237
33 98
3.
33:12-16 98
35:11 296
36 98

 

 

Genesis
APT
47:10
48:4
4B:17-18
49:9

Fxodus

1
2:16
2:21
3:7
317-14
3:13-15
4:24.27
6:1-8
12:4
12:6
1214
12:43-45
12:44
12:45-49
12:48
13:18
15:16
15:26
15:27
16
16:3
16:22
18

18:12
18:13
18:21
18:21-22
19:6
20:5
20:7
20:10
20:12
21:6
22:21

The Sociology of the Church

99
99
296
232
215

98

99, 232

232

295

239

37

101

239

232

240

240

247

247

108

103, 247

5

299

284

101

101

296

297

19, 101, 2156, 235,
(236n.), 2551.

99

232

42f., 279

62f., 232

101

239

239

104

239

245

222
