Exodus

24

24:5
24:11
28:4
28:6-39
28:9
28:13
28:29
28:40
28:41
32:9-14
34:5-7
38:8

Leviticus
21-3
4:15
9:15-22

10:9

i

12

15:29

17st

19:34

22:1087

23

23:3

23:32

24:5-9

24:9

25:35
26

Numbers
1:3
3212-15
3:40-51

6:22-27
6223-27

238
9

91, 104
264
264
101

101

264
264

37
48

37
297

106
103, 244
33

247

246

222

103

115

6in.

240

37

103

102

222

181

t4n,
214f,
232
232
249
219
242

Scripture Index

Numbers
8:16-19
8:19

10:3-4

10:7

1:7

11:27-29

14:11-19

15:37-41

16:11

16:42

20:14-21

25:12

28:12-32

32:17

35

35:15

Deuteronomy
5:14
5:22-23
7:15
9:10

10:4

10:19

12:12

12:18

12:19

14

14:21

14:22-27

14:28-29

17:8-13

18:6

18:16

20:5-7

24:17

23:3-8

23:7

23:15-16

26:11

26:12ff,

27:19

232
232

240

297

101

15n.

37

102, 264
297

197

98

102

102

215

89, 104
222

104
296
284
296
296
222
éln.
éln.
éln.
103, 244
103, 104
238

307
