James
5:13-16
5:14-16
5:15
5:16

d Peter
4:9

1 John
1:6
19
4:18

2 John
10

Revelation
1
1-3
1:10
1;16-17

287n.
291
160
160

221

26
243
172

222

21

165

32, 117, 240, 279
279

Scripture Index

Revelation
1:20
1:20-21
Past
2:8
2:12
3:20
4
4:1
AT
5
5:8-14
5:9-14
7:3-4

8:3

8:6-13
11:15-18
15:2-4
15:6
19:1-7
21:22
22

279
263
279
279
279
237

26, 240
279

215
26f., 240
266

32

262
279
274

43

32

44
32
110
89

313
